<mxfile host="65bd71144e">
    <diagram id="-HaW-fE-DVl7FETRqQ8H" name="Page-1">
        <mxGraphModel dx="475" dy="377" grid="0" gridSize="10" guides="1" tooltips="1" connect="1" arrows="1" fold="1" page="1" pageScale="1" pageWidth="1169" pageHeight="827" background="#FFFFFF" math="0" shadow="0">
            <root>
                <mxCell id="0"/>
                <mxCell id="1" parent="0"/>
                <mxCell id="RRvs5ZiF_B7eMr6cui6n-36" value="" style="rounded=0;whiteSpace=wrap;html=1;strokeColor=none;strokeWidth=5;fillColor=#4D4D4D;" parent="1" vertex="1">
                    <mxGeometry x="910" y="268.75" width="200" height="351.25" as="geometry"/>
                </mxCell>
                <mxCell id="RRvs5ZiF_B7eMr6cui6n-3" value="Window Title" style="strokeWidth=1;shadow=0;dashed=0;align=center;html=1;shape=mxgraph.mockup.containers.window;align=left;verticalAlign=top;spacingLeft=8;strokeColor2=#008cff;strokeColor3=#c4c4c4;fontColor=#666666;mainText=;fontSize=17;labelBackgroundColor=none;fillColor=#4D4D4D;" parent="1" vertex="1">
                    <mxGeometry x="40" y="240" width="800" height="540" as="geometry"/>
                </mxCell>
                <mxCell id="RRvs5ZiF_B7eMr6cui6n-63" value="" style="shape=image;verticalLabelPosition=bottom;labelBackgroundColor=#ffffff;verticalAlign=top;aspect=fixed;imageAspect=0;image=https://www.pole-emploi.fr/files/live/sites/PE/files/actualites/vignetteideee62655.jpg;" parent="1" vertex="1">
                    <mxGeometry x="920" y="580" width="190.04" height="110" as="geometry"/>
                </mxCell>
                <mxCell id="RRvs5ZiF_B7eMr6cui6n-64" value="" style="rounded=0;whiteSpace=wrap;html=1;strokeColor=none;strokeWidth=5;fillColor=#FFFFFF;" parent="1" vertex="1">
                    <mxGeometry x="868" y="595" width="462" height="645" as="geometry"/>
                </mxCell>
                <mxCell id="RRvs5ZiF_B7eMr6cui6n-4" value="Window Title" style="strokeWidth=1;shadow=0;dashed=0;align=center;html=1;shape=mxgraph.mockup.containers.window;align=left;verticalAlign=top;spacingLeft=8;strokeColor2=#008cff;strokeColor3=#c4c4c4;fontColor=#666666;mainText=;fontSize=17;labelBackgroundColor=none;fillColor=#4D4D4D;" parent="1" vertex="1">
                    <mxGeometry x="40" y="865.5" width="800" height="480" as="geometry"/>
                </mxCell>
                <mxCell id="RRvs5ZiF_B7eMr6cui6n-62" value="" style="rounded=0;whiteSpace=wrap;html=1;fontSize=30;strokeWidth=1;fillColor=#999999;strokeColor=none;" parent="1" vertex="1">
                    <mxGeometry x="440" y="970.51" width="400" height="240" as="geometry"/>
                </mxCell>
                <mxCell id="RRvs5ZiF_B7eMr6cui6n-5" value="" style="verticalLabelPosition=bottom;verticalAlign=top;html=1;shadow=0;dashed=0;strokeWidth=1;shape=mxgraph.android.phone2;strokeColor=#6F0000;fillColor=#a20025;fontColor=#ffffff;" parent="1" vertex="1">
                    <mxGeometry x="910" y="240" width="200" height="390" as="geometry"/>
                </mxCell>
                <mxCell id="RRvs5ZiF_B7eMr6cui6n-9" value="" style="ellipse;whiteSpace=wrap;html=1;aspect=fixed;fillColor=#999999;strokeColor=none;strokeWidth=5;" parent="1" vertex="1">
                    <mxGeometry x="60" y="320" width="150" height="150" as="geometry"/>
                </mxCell>
                <mxCell id="RRvs5ZiF_B7eMr6cui6n-7" value="" style="verticalLabelPosition=bottom;shadow=0;dashed=0;align=center;html=1;verticalAlign=top;strokeWidth=1;shape=mxgraph.mockup.containers.userMale;strokeColor=none;strokeColor2=#008cff;fillColor=#999999;fontStyle=0" parent="1" vertex="1">
                    <mxGeometry x="85" y="345" width="100" height="100" as="geometry"/>
                </mxCell>
                <mxCell id="RRvs5ZiF_B7eMr6cui6n-10" value="" style="dashed=0;outlineConnect=0;html=1;align=center;labelPosition=center;verticalLabelPosition=bottom;verticalAlign=top;shape=mxgraph.webicons.linkedin;fillColor=#0095DB;gradientColor=#006391" parent="1" vertex="1">
                    <mxGeometry x="410" y="280" width="20" height="20" as="geometry"/>
                </mxCell>
                <mxCell id="RRvs5ZiF_B7eMr6cui6n-11" value="" style="dashed=0;outlineConnect=0;html=1;align=center;labelPosition=center;verticalLabelPosition=bottom;verticalAlign=top;shape=mxgraph.webicons.feed;fillColor=#FFAC75;gradientColor=#FF6600" parent="1" vertex="1">
                    <mxGeometry x="450" y="280" width="20" height="20" as="geometry"/>
                </mxCell>
                <mxCell id="RRvs5ZiF_B7eMr6cui6n-12" value="mes infos etc" style="whiteSpace=wrap;html=1;align=center;strokeColor=none;strokeWidth=5;fillColor=#999999;" parent="1" vertex="1">
                    <mxGeometry x="260" y="345" width="390" height="95" as="geometry"/>
                </mxCell>
                <mxCell id="RRvs5ZiF_B7eMr6cui6n-18" value="" style="rounded=0;whiteSpace=wrap;html=1;strokeColor=none;strokeWidth=1;fillColor=#999999;" parent="1" vertex="1">
                    <mxGeometry x="40" y="510" width="800" height="271" as="geometry"/>
                </mxCell>
                <mxCell id="RRvs5ZiF_B7eMr6cui6n-20" value="&lt;div style=&quot;font-size: 35px&quot;&gt;&lt;font style=&quot;font-size: 35px&quot;&gt;. text intro&lt;/font&gt;&lt;/div&gt;&lt;div style=&quot;font-size: 35px&quot;&gt;&lt;font style=&quot;font-size: 35px&quot;&gt;. blablabla&lt;/font&gt;&lt;/div&gt;&lt;div style=&quot;font-size: 35px&quot;&gt;&lt;font style=&quot;font-size: 35px&quot;&gt;. blablabla&lt;/font&gt;&lt;font style=&quot;font-size: 45px&quot;&gt;&lt;br&gt;&lt;/font&gt;&lt;/div&gt;" style="html=1;shadow=0;dashed=0;shape=mxgraph.bootstrap.rrect;rSize=5;strokeColor=none;html=1;whiteSpace=wrap;fillColor=#999999;fontColor=#1A1A1A;verticalAlign=middle;align=left;spacing=20;fontSize=60;" parent="1" vertex="1">
                    <mxGeometry x="440" y="530" width="400" height="230" as="geometry"/>
                </mxCell>
                <mxCell id="RRvs5ZiF_B7eMr6cui6n-22" value="project title" style="text;html=1;strokeColor=none;fillColor=none;align=center;verticalAlign=middle;whiteSpace=wrap;rounded=0;" parent="1" vertex="1">
                    <mxGeometry x="340" y="515" width="200" height="30" as="geometry"/>
                </mxCell>
                <mxCell id="RRvs5ZiF_B7eMr6cui6n-23" value="" style="ellipse;whiteSpace=wrap;html=1;aspect=fixed;fillColor=#999999;strokeColor=none;strokeWidth=5;" parent="1" vertex="1">
                    <mxGeometry x="930" y="310" width="110" height="110" as="geometry"/>
                </mxCell>
                <mxCell id="RRvs5ZiF_B7eMr6cui6n-24" value="" style="verticalLabelPosition=bottom;shadow=0;dashed=0;align=center;html=1;verticalAlign=top;strokeWidth=1;shape=mxgraph.mockup.containers.userMale;strokeColor=none;strokeColor2=#008cff;fillColor=#999999;fontStyle=0" parent="1" vertex="1">
                    <mxGeometry x="948.13" y="328.75" width="73.75" height="72.5" as="geometry"/>
                </mxCell>
                <mxCell id="RRvs5ZiF_B7eMr6cui6n-25" value="" style="dashed=0;outlineConnect=0;html=1;align=center;labelPosition=center;verticalLabelPosition=bottom;verticalAlign=top;shape=mxgraph.webicons.linkedin;fillColor=#0095DB;gradientColor=#006391" parent="1" vertex="1">
                    <mxGeometry x="980" y="280" width="20" height="20" as="geometry"/>
                </mxCell>
                <mxCell id="RRvs5ZiF_B7eMr6cui6n-26" value="" style="dashed=0;outlineConnect=0;html=1;align=center;labelPosition=center;verticalLabelPosition=bottom;verticalAlign=top;shape=mxgraph.webicons.feed;fillColor=#FFAC75;gradientColor=#FF6600" parent="1" vertex="1">
                    <mxGeometry x="1020" y="280" width="20" height="20" as="geometry"/>
                </mxCell>
                <mxCell id="RRvs5ZiF_B7eMr6cui6n-32" value="mes infos etc" style="whiteSpace=wrap;html=1;align=center;strokeColor=none;strokeWidth=5;fillColor=#999999;" parent="1" vertex="1">
                    <mxGeometry x="919" y="432.5" width="184" height="95" as="geometry"/>
                </mxCell>
                <mxCell id="RRvs5ZiF_B7eMr6cui6n-34" value="" style="rounded=0;whiteSpace=wrap;html=1;strokeColor=none;strokeWidth=5;fillColor=#999999;" parent="1" vertex="1">
                    <mxGeometry x="919" y="545" width="184" height="35" as="geometry"/>
                </mxCell>
                <mxCell id="RRvs5ZiF_B7eMr6cui6n-35" value="project title" style="text;html=1;strokeColor=none;fillColor=none;align=center;verticalAlign=middle;whiteSpace=wrap;rounded=0;" parent="1" vertex="1">
                    <mxGeometry x="930" y="550" width="160" height="30" as="geometry"/>
                </mxCell>
                <mxCell id="RRvs5ZiF_B7eMr6cui6n-37" value="&lt;font style=&quot;font-size: 35px&quot;&gt;. . .&lt;/font&gt;" style="text;html=1;strokeColor=none;fillColor=none;align=center;verticalAlign=middle;whiteSpace=wrap;rounded=0;fontColor=#FFFFFF;" parent="1" vertex="1">
                    <mxGeometry x="410" y="740" width="60" height="30" as="geometry"/>
                </mxCell>
                <mxCell id="RRvs5ZiF_B7eMr6cui6n-38" value="&lt;font style=&quot;font-size: 35px&quot;&gt;. . .&lt;/font&gt;" style="text;html=1;strokeColor=none;fillColor=none;align=center;verticalAlign=middle;whiteSpace=wrap;rounded=0;fontColor=#FFFFFF;" parent="1" vertex="1">
                    <mxGeometry x="980" y="555" width="60" height="30" as="geometry"/>
                </mxCell>
                <mxCell id="RRvs5ZiF_B7eMr6cui6n-39" value="&lt;font style=&quot;font-size: 30px&quot;&gt;project title&lt;/font&gt;" style="text;html=1;strokeColor=none;fillColor=none;align=center;verticalAlign=middle;whiteSpace=wrap;rounded=0;" parent="1" vertex="1">
                    <mxGeometry x="70" y="915.5" width="740" height="43" as="geometry"/>
                </mxCell>
                <mxCell id="RRvs5ZiF_B7eMr6cui6n-47" value="" style="rounded=0;whiteSpace=wrap;html=1;fontSize=30;strokeWidth=1;fillColor=#999999;strokeColor=none;" parent="1" vertex="1">
                    <mxGeometry x="37" y="969" width="800" height="245.74" as="geometry"/>
                </mxCell>
                <mxCell id="RRvs5ZiF_B7eMr6cui6n-48" value="" style="rounded=0;whiteSpace=wrap;html=1;fontSize=30;strokeWidth=1;fillColor=#999999;strokeColor=none;" parent="1" vertex="1">
                    <mxGeometry x="40" y="1225.5" width="800" height="120.5" as="geometry"/>
                </mxCell>
                <mxCell id="RRvs5ZiF_B7eMr6cui6n-49" value="text intro" style="text;html=1;strokeColor=none;fillColor=none;align=center;verticalAlign=middle;whiteSpace=wrap;rounded=0;fontSize=30;" parent="1" vertex="1">
                    <mxGeometry x="50" y="995.5" width="380" height="190" as="geometry"/>
                </mxCell>
                <mxCell id="RRvs5ZiF_B7eMr6cui6n-50" value="text details" style="text;html=1;strokeColor=none;fillColor=none;align=center;verticalAlign=middle;whiteSpace=wrap;rounded=0;fontSize=30;" parent="1" vertex="1">
                    <mxGeometry x="50" y="1285.5" width="780" height="10" as="geometry"/>
                </mxCell>
                <mxCell id="RRvs5ZiF_B7eMr6cui6n-51" value="accueil" style="html=1;shadow=0;dashed=0;shape=mxgraph.bootstrap.rrect;rSize=5;strokeColor=none;strokeWidth=1;fillColor=none;fontColor=#0085FC;whiteSpace=wrap;align=center;verticalAlign=middle;spacingLeft=0;fontStyle=0;fontSize=16;spacing=5;" parent="1" vertex="1">
                    <mxGeometry x="80" y="915.5" width="80" height="40" as="geometry"/>
                </mxCell>
                <mxCell id="RRvs5ZiF_B7eMr6cui6n-59" value="&lt;font style=&quot;font-size: 35px&quot;&gt;. . .&lt;/font&gt;" style="text;html=1;align=center;verticalAlign=middle;whiteSpace=wrap;rounded=0;fontColor=#FFFFFF;" parent="1" vertex="1">
                    <mxGeometry x="410" y="1305.5" width="60" height="30" as="geometry"/>
                </mxCell>
                <mxCell id="RRvs5ZiF_B7eMr6cui6n-60" value="" style="shape=image;verticalLabelPosition=bottom;labelBackgroundColor=#ffffff;verticalAlign=top;aspect=fixed;imageAspect=0;image=https://www.pole-emploi.fr/files/live/sites/PE/files/actualites/vignetteideee62655.jpg;" parent="1" vertex="1">
                    <mxGeometry x="40" y="550" width="400" height="231.53" as="geometry"/>
                </mxCell>
                <mxCell id="RRvs5ZiF_B7eMr6cui6n-61" value="" style="shape=image;verticalLabelPosition=bottom;labelBackgroundColor=#ffffff;verticalAlign=top;aspect=fixed;imageAspect=0;image=https://www.pole-emploi.fr/files/live/sites/PE/files/actualites/vignetteideee62655.jpg;" parent="1" vertex="1">
                    <mxGeometry x="440" y="974.74" width="400" height="231.53" as="geometry"/>
                </mxCell>
                <mxCell id="RRvs5ZiF_B7eMr6cui6n-56" value="" style="rounded=0;whiteSpace=wrap;html=1;strokeColor=none;strokeWidth=5;fillColor=#4D4D4D;" parent="1" vertex="1">
                    <mxGeometry x="913" y="779.37" width="192" height="351.25" as="geometry"/>
                </mxCell>
                <mxCell id="RRvs5ZiF_B7eMr6cui6n-65" value="" style="shape=image;verticalLabelPosition=bottom;labelBackgroundColor=#ffffff;verticalAlign=top;aspect=fixed;imageAspect=0;image=https://www.pole-emploi.fr/files/live/sites/PE/files/actualites/vignetteideee62655.jpg;" parent="1" vertex="1">
                    <mxGeometry x="919" y="1088" width="190.04" height="110" as="geometry"/>
                </mxCell>
                <mxCell id="RRvs5ZiF_B7eMr6cui6n-66" value="" style="rounded=0;whiteSpace=wrap;html=1;strokeColor=none;strokeWidth=5;fillColor=#FFFFFF;" parent="1" vertex="1">
                    <mxGeometry x="903.5" y="1126" width="213" height="506" as="geometry"/>
                </mxCell>
                <mxCell id="RRvs5ZiF_B7eMr6cui6n-6" value="" style="verticalLabelPosition=bottom;verticalAlign=top;html=1;shadow=0;dashed=0;strokeWidth=1;shape=mxgraph.android.phone2;strokeColor=#6F0000;fillColor=#a20025;fontColor=#ffffff;" parent="1" vertex="1">
                    <mxGeometry x="910" y="760" width="200" height="390" as="geometry"/>
                </mxCell>
                <mxCell id="RRvs5ZiF_B7eMr6cui6n-52" value="accueil" style="html=1;shadow=0;dashed=0;shape=mxgraph.bootstrap.rrect;rSize=5;strokeColor=none;strokeWidth=1;fillColor=none;fontColor=#0085FC;whiteSpace=wrap;align=center;verticalAlign=middle;spacingLeft=0;fontStyle=0;fontSize=16;spacing=5;" parent="1" vertex="1">
                    <mxGeometry x="920" y="800" width="90" height="40" as="geometry"/>
                </mxCell>
                <mxCell id="RRvs5ZiF_B7eMr6cui6n-54" value="" style="rounded=0;whiteSpace=wrap;html=1;fontSize=30;strokeWidth=1;fillColor=#999999;strokeColor=none;" parent="1" vertex="1">
                    <mxGeometry x="919" y="880" width="183" height="210" as="geometry"/>
                </mxCell>
                <mxCell id="RRvs5ZiF_B7eMr6cui6n-55" value="text intro" style="text;html=1;strokeColor=none;fillColor=none;align=center;verticalAlign=middle;whiteSpace=wrap;rounded=0;fontSize=30;" parent="1" vertex="1">
                    <mxGeometry x="919" y="936" width="183" height="128" as="geometry"/>
                </mxCell>
                <mxCell id="RRvs5ZiF_B7eMr6cui6n-57" value="&lt;font style=&quot;font-size: 30px&quot;&gt;project title&lt;/font&gt;" style="text;html=1;strokeColor=none;fillColor=none;align=center;verticalAlign=middle;whiteSpace=wrap;rounded=0;" parent="1" vertex="1">
                    <mxGeometry x="910" y="827" width="200" height="43" as="geometry"/>
                </mxCell>
                <mxCell id="RRvs5ZiF_B7eMr6cui6n-58" value="&lt;font style=&quot;font-size: 35px&quot;&gt;. . .&lt;/font&gt;" style="text;html=1;strokeColor=none;fillColor=none;align=center;verticalAlign=middle;whiteSpace=wrap;rounded=0;fontColor=#FFFFFF;" parent="1" vertex="1">
                    <mxGeometry x="980" y="1090" width="60" height="30" as="geometry"/>
                </mxCell>
            </root>
        </mxGraphModel>
    </diagram>
</mxfile>